main.c:76:5:main	8	static
main.c:140:6:SystemClock_Config	96	static
main.c:184:6:rotation_time	4	static
main.c:190:6:time_for_degree	16	static
main.c:196:6:HAL_GPIO_EXTI_Callback	16	static
main.c:201:6:set_color	24	static
main.c:208:6:set_colors	24	static
main.c:214:6:draw	24	static
main.c:227:6:Error_Handler	4	static,ignoring_inline_asm
